Capstone Project
…
             George Acquaah 

Project Description

This project aims to access the water quality treatment efficiency of water treatment plant by assessing the quality of raw water and finally treatment water.

Project Goals

hh

library(readxl)

read_excel(here::here("data/raw/data2_capstone_rhema619.xlsx"))

# A tibble: 24 × 6
   parameter    unit  `2018.10.01` `2018.11.01` `2018.12.01` `2019.01.01`
   <chr>        <chr>        <dbl>        <dbl>        <dbl>        <dbl>
 1 pH           NA           6.2          6.8           6            6.32
 2 colour       Hu          30           60           100           75   
 3 Turbidity    NTU          9.7         17            44           39   
 4 Conductivity <NA>        51.5         82.4         368          414   
 5 TDS          mg/L        23.1         35.5         171.         188.  
 6 Alkalinity   mg/L        76           74           238            5.9 
 7 Salinity     mg/L         0.02         0.03          0.17         0.19
 8 Chloride     mg/L         2.4         15            84           74   
 9 Fluoride     mg/L         0.15         0.06          0.27         0.1 
10 Manganese    mg/L         0.073        0.013         1.20         2.2 
# ℹ 14 more rows
…
